what,kind,bundleId,bundleVersion,description,time
started,bundle,org.eclipse.mylyn.context.ui,3.6.0.v20110608-1400,"org.eclipse.mylyn.context.ui",1339071646218
started,bundle,org.eclipse.mylyn.monitor.ui,3.6.0.v20110608-1400,"org.eclipse.mylyn.monitor.ui",1339071646218
started,bundle,org.eclipse.mylyn.tasks.ui,3.6.0.v20110608-1400,"org.eclipse.mylyn.tasks.ui",1339071646228
started,bundle,org.eclipse.mylyn.team.ui,3.6.0.v20110608-1400,"org.eclipse.mylyn.team.ui",1339071646261
started,bundle,org.eclipse.search,3.7.0.v20110505-0800,"org.eclipse.search",1339071646277
started,bundle,org.eclipse.team.core,3.6.0.I20110525-0800,"org.eclipse.team.core",1339071646287
started,bundle,org.eclipse.team.cvs.core,3.3.400.I20110510-0800,"org.eclipse.team.cvs.core",1339071646292
started,bundle,org.eclipse.team.cvs.ui,3.3.400.I20110510-0800,"org.eclipse.team.cvs.ui",1339071646299
started,bundle,org.eclipse.team.ui,3.6.100.I20110525-0800,"org.eclipse.team.ui",1339071646309
started,bundle,org.eclipse.ui,3.7.0.I20110602-0100,"org.eclipse.ui",1339071646313
started,bundle,org.eclipse.ui.console,3.5.100.v20110511,"org.eclipse.ui.console",1339071646316
started,bundle,org.eclipse.ui.editors,3.7.0.v20110517-0800,"org.eclipse.ui.editors",1339071646316
started,bundle,org.eclipse.ui.forms,3.5.100.v20110425,"org.eclipse.ui.forms",1339071646325
started,bundle,org.eclipse.ui.ide,3.7.0.I20110519-0100,"org.eclipse.ui.ide",1339071646332
started,bundle,org.eclipse.ui.navigator,3.5.100.I20110524-0800,"org.eclipse.ui.navigator",1339071646338
started,bundle,org.eclipse.ui.navigator.resources,3.4.300.I20110421-1800,"org.eclipse.ui.navigator.resources",1339071646376
started,bundle,org.eclipse.ui.net,1.2.100.I20110511-0800,"org.eclipse.ui.net",1339071646376
started,bundle,org.eclipse.ui.views,3.6.0.I20110412-0800,"org.eclipse.ui.views",1339071646386
started,bundle,org.eclipse.ui.workbench,3.7.0.I20110519-0100,"org.eclipse.ui.workbench",1339071646393
started,bundle,org.eclipse.ui.workbench.texteditor,3.7.0.v20110505-0800,"org.eclipse.ui.workbench.texteditor",1339071646401
started,bundle,org.eclipse.update.configurator,3.3.100.v20100512,"org.eclipse.update.configurator",1339071646409
started,bundle,org.eclipse.update.core,3.2.500.v20110330,"org.eclipse.update.core",1339071646422
started,bundle,org.eclipse.update.scheduler,3.2.300.v20100512,"org.eclipse.update.scheduler",1339071646426
started,bundle,org.eclipse.wst.common.core,1.2.0.v200908252030,"org.eclipse.wst.common.core",1339071646426
started,bundle,org.eclipse.wst.common.emf,1.2.100.v201101101900,"org.eclipse.wst.common.emf",1339071646429
started,bundle,org.eclipse.wst.common.emfworkbench.integration,1.2.100.v201011172300,"org.eclipse.wst.common.emfworkbench.integration",1339071646439
started,bundle,org.eclipse.wst.common.frameworks,1.2.100.v201105122000,"org.eclipse.wst.common.frameworks",1339071646450
started,bundle,org.eclipse.wst.common.frameworks.ui,1.2.100.v201105122000,"org.eclipse.wst.common.frameworks.ui",1339071646456
started,bundle,org.eclipse.wst.common.modulecore,1.2.100.v201105191800,"org.eclipse.wst.common.modulecore",1339071646464
started,bundle,org.eclipse.wst.common.project.facet.core,1.4.200.v201103170332,"org.eclipse.wst.common.project.facet.core",1339071646560
started,bundle,org.eclipse.wst.jsdt.core,1.1.100.v201104272153,"org.eclipse.wst.jsdt.core",1339071646568
started,bundle,org.eclipse.wst.jsdt.manipulation,1.0.300.v201104272153,"org.eclipse.wst.jsdt.manipulation",1339071646569
started,bundle,org.eclipse.wst.jsdt.ui,1.1.100.v201105041953,"org.eclipse.wst.jsdt.ui",1339071646601
started,bundle,org.eclipse.wst.validation,1.2.300.v201104190230,"org.eclipse.wst.validation",1339071646608
started,bundle,org.eclipse.wst.web,1.1.500.v201104251400,"org.eclipse.wst.web",1339071646608
started,bundle,org.eclipse.wst.xml.core,1.1.600.v201104251227,"org.eclipse.wst.xml.core",1339071646616
os,sysinfo,,,"linux",1339071646619
arch,sysinfo,,,"x86_64",1339071646619
ws,sysinfo,,,"gtk",1339071646619
locale,sysinfo,,,"fr_FR",1339071646619
processors,sysinfo,,,"4",1339071646619
java.runtime.name,sysinfo,,,"Java(TM) SE Runtime Environment",1339071646619
java.runtime.version,sysinfo,,,"1.6.0_26-b03",1339071646619
java.specification.name,sysinfo,,,"Java Platform API Specification",1339071646619
java.specification.vendor,sysinfo,,,"Sun Microsystems Inc.",1339071646619
java.specification.version,sysinfo,,,"1.6",1339071646619
java.vendor,sysinfo,,,"Sun Microsystems Inc.",1339071646619
java.version,sysinfo,,,"1.6.0_26",1339071646619
java.vm.info,sysinfo,,,"mixed mode",1339071646619
java.vm.name,sysinfo,,,"Java HotSpot(TM) 64-Bit Server VM",1339071646619
java.vm.specification.name,sysinfo,,,"Java Virtual Machine Specification",1339071646619
java.vm.specification.vendor,sysinfo,,,"Sun Microsystems Inc.",1339071646619
java.vm.specification.version,sysinfo,,,"1.0",1339071646619
java.vm.vendor,sysinfo,,,"Sun Microsystems Inc.",1339071646619
java.vm.version,sysinfo,,,"20.1-b02",1339071646619
started,bundle,org.eclipse.epp.usagedata.ui,1.3.1.R201106061540,"org.eclipse.epp.usagedata.ui",1339071647715
deactivated,workbench,org.eclipse.ui.workbench,3.7.0.I20110519-0100,"",1339071649797
activated,workbench,org.eclipse.ui.workbench,3.7.0.I20110519-0100,"",1339071652083
started,bundle,org.eclipse.debug.ui,3.7.0.v20110518,"org.eclipse.debug.ui",1339071656349
started,bundle,org.eclipse.wst.server.core,1.1.302.v20110518,"org.eclipse.wst.server.core",1339071656536
started,bundle,org.eclipse.wst.server.ui,1.1.305.v20110511,"org.eclipse.wst.server.ui",1339071656601
started,bundle,org.eclipse.jdt.debug,3.7.0.v20110509,"org.eclipse.jdt.debug",1339071656798
started,bundle,org.eclipse.jdt.debug.ui,3.6.0.v20110512,"org.eclipse.jdt.debug.ui",1339071656866
executed,command,org.eclipse.debug.ui,3.7.0.v20110518,"org.eclipse.debug.ui.commands.RunLast",1339071656904
deactivated,workbench,org.eclipse.ui.workbench,3.7.0.I20110519-0100,"",1339071657529
opened,view,org.eclipse.ui.console,3.5.100.v20110511,"org.eclipse.ui.console.ConsoleView",1339071657880
activated,workbench,org.eclipse.ui.workbench,3.7.0.I20110519-0100,"",1339071665217
deactivated,workbench,org.eclipse.ui.workbench,3.7.0.I20110519-0100,"",1339071665244
activated,workbench,org.eclipse.ui.workbench,3.7.0.I20110519-0100,"",1339071731856
deactivated,workbench,org.eclipse.ui.workbench,3.7.0.I20110519-0100,"",1339071733991
activated,workbench,org.eclipse.ui.workbench,3.7.0.I20110519-0100,"",1339071842943
executed,command,org.eclipse.debug.ui,3.7.0.v20110518,"org.eclipse.debug.ui.commands.RunLast",1339071844338
deactivated,workbench,org.eclipse.ui.workbench,3.7.0.I20110519-0100,"",1339071844595
activated,workbench,org.eclipse.ui.workbench,3.7.0.I20110519-0100,"",1339071850898
deactivated,workbench,org.eclipse.ui.workbench,3.7.0.I20110519-0100,"",1339071850928
activated,workbench,org.eclipse.ui.workbench,3.7.0.I20110519-0100,"",1339071886435
deactivated,workbench,org.eclipse.ui.workbench,3.7.0.I20110519-0100,"",1339071993819
activated,workbench,org.eclipse.ui.workbench,3.7.0.I20110519-0100,"",1339072331459
executed,command,org.eclipse.debug.ui,3.7.0.v20110518,"org.eclipse.debug.ui.commands.RunLast",1339072332790
deactivated,workbench,org.eclipse.ui.workbench,3.7.0.I20110519-0100,"",1339072333005
activated,workbench,org.eclipse.ui.workbench,3.7.0.I20110519-0100,"",1339072338758
deactivated,workbench,org.eclipse.ui.workbench,3.7.0.I20110519-0100,"",1339072338786
activated,workbench,org.eclipse.ui.workbench,3.7.0.I20110519-0100,"",1339072365046
deactivated,workbench,org.eclipse.ui.workbench,3.7.0.I20110519-0100,"",1339072367489
activated,workbench,org.eclipse.ui.workbench,3.7.0.I20110519-0100,"",1339072396179
executed,command,org.eclipse.debug.ui,3.7.0.v20110518,"org.eclipse.debug.ui.commands.RunLast",1339072400763
deactivated,workbench,org.eclipse.ui.workbench,3.7.0.I20110519-0100,"",1339072401000
activated,workbench,org.eclipse.ui.workbench,3.7.0.I20110519-0100,"",1339072429762
deactivated,workbench,org.eclipse.ui.workbench,3.7.0.I20110519-0100,"",1339072432413
activated,workbench,org.eclipse.ui.workbench,3.7.0.I20110519-0100,"",1339072444382
executed,command,org.eclipse.debug.ui,3.7.0.v20110518,"org.eclipse.debug.ui.commands.RunLast",1339072446002
deactivated,workbench,org.eclipse.ui.workbench,3.7.0.I20110519-0100,"",1339072446233
activated,workbench,org.eclipse.ui.workbench,3.7.0.I20110519-0100,"",1339072451573
deactivated,workbench,org.eclipse.ui.workbench,3.7.0.I20110519-0100,"",1339072451595
started,bundle,org.eclipse.wst.jsdt.debug.rhino.ui,1.0.0.v201103232243,"org.eclipse.wst.jsdt.debug.rhino.ui",1339072784753
activated,workbench,org.eclipse.ui.workbench,3.7.0.I20110519-0100,"",1339075887663
activated,view,org.eclipse.ui.navigator.resources,3.4.300.I20110421-1800,"org.eclipse.ui.navigator.ProjectExplorer",1339075887790
started,bundle,org.eclipse.jst.ws.jaxws.dom.integration,1.0.100.v201101252155,"org.eclipse.jst.ws.jaxws.dom.integration",1339075887868
started,bundle,org.eclipse.jst.ws.jaxws.dom.ui,1.0.0.v201004171919,"org.eclipse.jst.ws.jaxws.dom.ui",1339075887893
opened,editor,org.eclipse.jdt.ui,3.7.0.v20110531-1200,"org.eclipse.jdt.ui.CompilationUnitEditor",1339075895618
activated,editor,org.eclipse.jdt.ui,3.7.0.v20110531-1200,"org.eclipse.jdt.ui.CompilationUnitEditor",1339075895716
deactivated,workbench,org.eclipse.ui.workbench,3.7.0.I20110519-0100,"",1339075906831
activated,workbench,org.eclipse.ui.workbench,3.7.0.I20110519-0100,"",1339075908049
deactivated,workbench,org.eclipse.ui.workbench,3.7.0.I20110519-0100,"",1339075909444
activated,workbench,org.eclipse.ui.workbench,3.7.0.I20110519-0100,"",1339075975247
activated,view,org.eclipse.ui.console,3.5.100.v20110511,"org.eclipse.ui.console.ConsoleView",1339075975291
closed,workbench,org.eclipse.ui.workbench,3.7.0.I20110519-0100,"",1339075977116
started,bundle,org.eclipse.compare,3.5.200.I20110525-0800,"org.eclipse.compare",1339075977677
stopped,bundle,org.eclipse.jst.ws.axis.creation.ui,1.0.700.v201104070312,"org.eclipse.jst.ws.axis.creation.ui",1339075977952
