<?xml version="1.0" encoding="UTF-8"?>
<session version="1.0">
<refactoring comment="Delete resource &apos;li260-LOHEAC-CARRE&apos;" deleteContents="false" description="Delete resource &apos;li260-LOHEAC-CARRE&apos;" element1="/li260-LOHEAC-CARRE" flags="7" id="org.eclipse.ltk.core.refactoring.delete.resources" resources="1" stamp="1329292244821"/>
</session>